Desmond Tuiyot - An Analysis of Eminem Lyrics - NLP
…
# # save data to csv file for future access
write_csv(lyrics, path="../../static/data/lyrics_by_lines.csv")
# 
# # load lyrics data
lyrics<-read_csv(file="../../static/data/lyrics_by_lines.csv")

lyrics

## # A tibble: 14,862 x 6
##    lyric                    line album          track_n song_name     album_year
##    <chr>                   <dbl> <chr>            <dbl> <chr>         <date>    
##  1 Yeah                        1 Music To Be M~       1 Premonition ~ 2020-01-17
##  2 So I guess this is wha~     2 Music To Be M~       1 Premonition ~ 2020-01-17
##  3 Think it's obvious          3 Music To Be M~       1 Premonition ~ 2020-01-17
##  4 We ain't never gonna s~     4 Music To Be M~       1 Premonition ~ 2020-01-17
##  5 But it's funny              5 Music To Be M~       1 Premonition ~ 2020-01-17
##  6 As much as I hate you       6 Music To Be M~       1 Premonition ~ 2020-01-17
##  7 I need you                  7 Music To Be M~       1 Premonition ~ 2020-01-17
##  8 This is music to be mu~     8 Music To Be M~       1 Premonition ~ 2020-01-17
##  9 They said my last albu~     9 Music To Be M~       1 Premonition ~ 2020-01-17
## 10 No, I sound like a spi~    10 Music To Be M~       1 Premonition ~ 2020-01-17
## # ... with 14,852 more rows
…
  # gerund contractions
  dat<-str_replace_all(dat, "in'\\s", "ing  ")
  # finna, wanna, gonna
  dat<-str_replace_all(dat, "gonna", "going to")
  dat<-str_replace_all(dat, "finna", "going to")
  dat<-str_replace_all(dat, "wanna", "want to")
  dat
}
# # 
lyrics$lyric<-tolower(lyrics$lyric)
lyrics$lyric<-fix_contractions(lyrics$lyric)
lyrics %>%
  filter(str_detect(lyric, "ing"))

## # A tibble: 3,625 x 6
##    lyric                        line album       track_n song_name    album_year
##    <chr>                       <dbl> <chr>         <dbl> <chr>        <date>    
##  1 we aint never going to see~     4 Music To B~       1 Premonition~ 2020-01-17
##  2 then i woulda quit a long ~    18 Music To B~       1 Premonition~ 2020-01-17
##  3 looking at them plaques, c~    23 Music To B~       1 Premonition~ 2020-01-17
##  4 but rolling stone stars, i~    27 Music To B~       1 Premonition~ 2020-01-17
##  5 they said i am lyrically a~    40 Music To B~       1 Premonition~ 2020-01-17
##  6 but i have nothing to say      41 Music To B~       1 Premonition~ 2020-01-17
##  7 but then when i put out re~    42 Music To B~       1 Premonition~ 2020-01-17
##  8 fans keep on pulling me on~    48 Music To B~       1 Premonition~ 2020-01-17
##  9 i was not dissing  tech, t~    58 Music To B~       1 Premonition~ 2020-01-17
## 10 instead of us being credit~    60 Music To B~       1 Premonition~ 2020-01-17
## # ... with 3,615 more rows
…
## [1] 0

# save cleaned data to csv file for future access
write_csv(lyrics, "../../static/data/lyrics_by_lines.csv")

# load lyrics data
lyrics<-read_csv(file="../../static/data/lyrics_by_lines.csv")

lyrics

## # A tibble: 14,862 x 6
##    lyric                    line album          track_n song_name     album_year
##    <chr>                   <dbl> <chr>            <dbl> <chr>         <date>    
##  1 yeah                        1 Music To Be M~       1 Premonition ~ 2020-01-17
##  2 so i guess this is wha~     2 Music To Be M~       1 Premonition ~ 2020-01-17
##  3 think it obvious            3 Music To Be M~       1 Premonition ~ 2020-01-17
##  4 we aint never going to~     4 Music To Be M~       1 Premonition ~ 2020-01-17
##  5 but it funny                5 Music To Be M~       1 Premonition ~ 2020-01-17
##  6 as much as i hate you       6 Music To Be M~       1 Premonition ~ 2020-01-17
##  7 i need you                  7 Music To Be M~       1 Premonition ~ 2020-01-17
##  8 this is music to be mu~     8 Music To Be M~       1 Premonition ~ 2020-01-17
##  9 they said my last albu~     9 Music To Be M~       1 Premonition ~ 2020-01-17
## 10 no  i sound like a spi~    10 Music To Be M~       1 Premonition ~ 2020-01-17
## # ... with 14,852 more rows
…
