…
lyrics<-lyrics%>%
  filter(!str_detect(song_name, "Skit"),
         !str_detect(song_name, "skit"),
         !song_name %in% short_titles)

Lemmatization

Lemmatization is the process of resolving words to their dictionary form. For example, any words in their gerund form (e.g. rapping) will be reduced to their dictionary form (rap). Skipping this process might affect the results of our analysis.

lyrics<-lyrics %>%
  mutate(lyric=textstem::lemmatize_strings(lyric))
lyrics

## # A tibble: 14,455 x 6
##    lyric                   line album          track_n song_name      album_year
##    <chr>                  <int> <chr>            <dbl> <chr>          <date>    
##  1 yes                        1 Music To Be M~       1 Premonition (~ 2020-01-17
##  2 so i guess this be wh~     2 Music To Be M~       1 Premonition (~ 2020-01-17
##  3 think it obvious           3 Music To Be M~       1 Premonition (~ 2020-01-17
##  4 we aint never go to s~     4 Music To Be M~       1 Premonition (~ 2020-01-17
##  5 but it funny               5 Music To Be M~       1 Premonition (~ 2020-01-17
##  6 as much as i hate you      6 Music To Be M~       1 Premonition (~ 2020-01-17
##  7 i need you                 7 Music To Be M~       1 Premonition (~ 2020-01-17
##  8 this be music to be m~     8 Music To Be M~       1 Premonition (~ 2020-01-17
##  9 they say my last albu~     9 Music To Be M~       1 Premonition (~ 2020-01-17
## 10 no i sound like a spi~    10 Music To Be M~       1 Premonition (~ 2020-01-17
## # ... with 14,445 more rows
…
data("stop_words")

lyrics_filtered<-lyrics %>%
  unnest_tokens(word, lyric) %>%
  anti_join(stop_words) %>%
  ungroup()

words_total<-lyrics_filtered %>%
  count(word) %>%
  arrange(-n)

words_total

## # A tibble: 7,529 x 2
##    word      n
##    <chr> <int>
##  1 fuck    819
##  2 shit    509
##  3 aint    405
##  4 time    343
##  5 bitch   329
##  6 feel    324
##  7 love    263
##  8 leave   212
##  9 shady   190
## 10 girl    181
## # ... with 7,519 more rows
…
unnecessary_words <- c("fuck", "ah", "yeah", "aint", "shit","ass", "la", 
                       "yah", "ah", "bitch", "ama", "ha", "yo", "ah", "cum",
                       "dick", "ho", "erra", "gotta", "tryna", "gon", "dum",
                       "uh", "hey", "whoa", "til", "chka", "ta", "tahh")

lyrics_filtered <- lyrics_filtered %>%
  filter(!word %in% unnecessary_words)

words_total<-lyrics_filtered %>%
  count(word) %>%
  arrange(-n)

words_total

## # A tibble: 7,503 x 2
##    word      n
##    <chr> <int>
##  1 time    343
##  2 feel    324
##  3 love    263
##  4 leave   212
##  5 shady   190
##  6 girl    181
##  7 day     173
##  8 call    170
##  9 baby    168
## 10 world   158
## # ... with 7,493 more rows
…
To the left of the distribution, we have a few popular words that are used most frequently by Eminem. The long right tail of the distribution in turn shows that there are many words that are used much less frequently.

A way to test whether a natural language dataset conforms to Zipf’s law is to plot a rank-frequency graph, on a log-log scale. In this case, the plotted line should have a negative slope and a linear relationship.
In this case, I want to see if different albums conform to zipfs law

albums_total<-lyrics %>%
  unnest_tokens(word, lyric) %>%
  count(album, word, sort=T) %>%
  group_by(album) %>%
  mutate(total = sum(n))

albums_total

## # A tibble: 20,414 x 4
## # Groups:   album [10]
##    album                    word      n total
##    <chr>                    <chr> <int> <int>
##  1 The Marshall Mathers LP2 i      1075 19918
##  2 Recovery                 i       901 15649
##  3 The Marshall Mathers LP2 be      877 19918
##  4 The Marshall Mathers LP  i       778 11996
##  5 Music To Be Murdered By  i       714 11888
##  6 Revival                  i       705 13244
##  7 Relapse                  i       684 14669
##  8 Encore                   i       678 15173
##  9 Recovery                 you     672 15649
## 10 The Marshall Mathers LP2 the     652 19918
## # ... with 20,404 more rows
…
There’s a slight increase in lexical diversity across album time. Surprisingly, his latest album, Music To Be Murdered By, has a lower lexical diversity than his previous two. MMLP2, Kamikaze, and Revival have the highest lexical diversities.

To contrast, we can also explore lexical density.

## LEXICAL DENSITY
lexical_density_per_album <- lyrics %>%
  unnest_tokens(word, lyric) %>%
  group_by(song_name, album, album_year) %>%
  summarize(lex_density=n_distinct(word)/n()) %>%
  arrange(-lex_density) %>%
  ungroup()

lexical_density_per_album

## # A tibble: 164 x 4
##    song_name            album                   album_year lex_density
##    <chr>                <chr>                   <date>           <dbl>
##  1 Session One          Recovery                2010-06-18       0.585
##  2 When the Music Stops The Eminem Show         2002-05-26       0.548
##  3 Yah Yah              Music To Be Murdered By 2020-01-17       0.538
##  4 Remember Me?         The Marshall Mathers LP 2000-05-23       0.528
##  5 Good Guy             Kamikaze                2018-08-31       0.527
##  6 Nice Guy             Kamikaze                2018-08-31       0.503
##  7 Bad Meets Evil       The Slim Shady LP       1999-02-23       0.490
##  8 Bitch Please II      The Marshall Mathers LP 2000-05-23       0.482
##  9 You Gon’ Learn       Music To Be Murdered By 2020-01-17       0.481
## 10 Lock It Up           Music To Be Murdered By 2020-01-17       0.477
## # ... with 154 more rows
…
